%YAML 1.1
%TAG !u! tag:unity3d.com,2011:
--- !u!29 &1
OcclusionCullingSettings:
  m_ObjectHideFlags: 0
  serializedVersion: 2
  m_OcclusionBakeSettings:
    smallestOccluder: 5
    smallestHole: 0.25
    backfaceThreshold: 100
  m_SceneGUID: 00000000000000000000000000000000
  m_OcclusionCullingData: {fileID: 0}
--- !u!104 &2
RenderSettings:
  m_ObjectHideFlags: 0
  serializedVersion: 9
  m_Fog: 0
  m_FogColor: {r: 0.5, g: 0.5, b: 0.5, a: 1}
  m_FogMode: 3
  m_FogDensity: 0.01
  m_LinearFogStart: 0
  m_LinearFogEnd: 300
  m_AmbientSkyColor: {r: 0.106, g: 0.1135, b: 0.1295, a: 0.5}
  m_AmbientEquatorColor: {r: 0.057, g: 0.0625, b: 0.0665, a: 0.5}
  m_AmbientGroundColor: {r: 0.0235, g: 0.0215, b: 0.0175, a: 0.5}
  m_AmbientIntensity: 0.5
  m_AmbientMode: 0
  m_SubtractiveShadowColor: {r: 0.42, g: 0.478, b: 0.627, a: 1}
  m_SkyboxMaterial: {fileID: 2100000, guid: bac19cf49c124754196012f08c123f34, type: 2}
  m_HaloStrength: 0.5
  m_FlareStrength: 1
  m_FlareFadeSpeed: 3
  m_HaloTexture: {fileID: 0}
  m_SpotCookie: {fileID: 10001, guid: 0000000000000000e000000000000000, type: 0}
  m_DefaultReflectionMode: 1
  m_DefaultReflectionResolution: 128
  m_ReflectionBounces: 1
  m_ReflectionIntensity: 0.5
  m_CustomReflection: {fileID: 8900000, guid: bab875665efdd084bbf5606dd306cf8c, type: 3}
  m_Sun: {fileID: 0}
  m_IndirectSpecularColor: {r: 0.67433935, g: 0.62820464, b: 0.583187, a: 0.5}
  m_UseRadianceAmbientProbe: 0
--- !u!157 &4
LightmapSettings:
  m_ObjectHideFlags: 0
  serializedVersion: 12
  m_GIWorkflowMode: 1
  m_GISettings:
    serializedVersion: 2
    m_BounceScale: 1
    m_IndirectOutputScale: 1
    m_AlbedoBoost: 1
    m_EnvironmentLightingMode: 0
    m_EnableBakedLightmaps: 1
    m_EnableRealtimeLightmaps: 1
  m_LightmapEditorSettings:
    serializedVersion: 12
    m_Resolution: 2
    m_BakeResolution: 64
    m_AtlasSize: 1024
    m_AO: 0
    m_AOMaxDistance: 1
    m_CompAOExponent: 0
    m_CompAOExponentDirect: 0
    m_ExtractAmbientOcclusion: 0
    m_Padding: 2
    m_LightmapParameters: {fileID: 0}
    m_LightmapsBakeMode: 1
    m_TextureCompression: 1
    m_FinalGather: 0
    m_FinalGatherFiltering: 1
    m_FinalGatherRayCount: 1024
    m_ReflectionCompression: 2
    m_MixedBakeMode: 1
    m_BakeBackend: 0
    m_PVRSampling: 1
    m_PVRDirectSampleCount: 32
    m_PVRSampleCount: 512
    m_PVRBounces: 2
    m_PVREnvironmentSampleCount: 512
    m_PVREnvironmentReferencePointCount: 2048
    m_PVRFilteringMode: 0
    m_PVRDenoiserTypeDirect: 0
    m_PVRDenoiserTypeIndirect: 0
    m_PVRDenoiserTypeAO: 0
    m_PVRFilterTypeDirect: 0
    m_PVRFilterTypeIndirect: 0
    m_PVRFilterTypeAO: 0
    m_PVREnvironmentMIS: 0
    m_PVRCulling: 1
    m_PVRFilteringGaussRadiusDirect: 1
    m_PVRFilteringGaussRadiusIndirect: 5
    m_PVRFilteringGaussRadiusAO: 2
    m_PVRFilteringAtrousPositionSigmaDirect: 0.5
    m_PVRFilteringAtrousPositionSigmaIndirect: 2
    m_PVRFilteringAtrousPositionSigmaAO: 1
    m_ExportTrainingData: 0
    m_TrainingDataDestination: TrainingData
    m_LightProbeSampleCountMultiplier: 4
  m_LightingDataAsset: {fileID: 112000000, guid: b27a1670a4b5cdc4e9ceee504d149bac, type: 2}
  m_LightingSettings: {fileID: 4890085278179872738, guid: 89908c971eee09d42bd47e43d37a8750, type: 2}
--- !u!196 &5
NavMeshSettings:
  serializedVersion: 2
  m_ObjectHideFlags: 0
  m_BuildSettings:
    serializedVersion: 2
    agentTypeID: 0
    agentRadius: 0.5
    agentHeight: 2
    agentSlope: 45
    agentClimb: 0.4
    ledgeDropHeight: 0
    maxJumpAcrossDistance: 0
    minRegionArea: 2
    manualCellSize: 0
    cellSize: 0.16666667
    manualTileSize: 0
    tileSize: 256
    accuratePlacement: 0
    maxJobWorkers: 0
    preserveTilesOutsideBounds: 0
    debug:
      m_Flags: 0
  m_NavMeshData: {fileID: 0}
--- !u!1001 &18339982
PrefabInstance:
  m_ObjectHideFlags: 0
  serializedVersion: 2
  m_Modification:
    m_TransformParent: {fileID: 1075876286}
    m_Modifications:
    - target: {fileID: 481922, guid: d93ec03b51f37fd4d905a60a08a4fbbc, type: 3}
      propertyPath: m_RootOrder
      value: 0
      objectReference: {fileID: 0}
    - target: {fileID: 481922, guid: d93ec03b51f37fd4d905a60a08a4fbbc, type: 3}
      propertyPath: m_LocalPosition.x
      value: 0
      objectReference: {fileID: 0}
    - target: {fileID: 481922, guid: d93ec03b51f37fd4d905a60a08a4fbbc, type: 3}
      propertyPath: m_LocalPosition.y
      value: 0
      objectReference: {fileID: 0}
    - target: {fileID: 481922, guid: d93ec03b51f37fd4d905a60a08a4fbbc, type: 3}
      propertyPath: m_LocalPosition.z
      value: 0
      objectReference: {fileID: 0}
    - target: {fileID: 481922, guid: d93ec03b51f37fd4d905a60a08a4fbbc, type: 3}
      propertyPath: m_LocalRotation.w
      value: 1
      objectReference: {fileID: 0}
    - target: {fileID: 481922, guid: d93ec03b51f37fd4d905a60a08a4fbbc, type: 3}
      propertyPath: m_LocalRotation.x
      value: 0
      objectReference: {fileID: 0}
    - target: {fileID: 481922, guid: d93ec03b51f37fd4d905a60a08a4fbbc, type: 3}
      propertyPath: m_LocalRotation.y
      value: 0
      objectReference: {fileID: 0}
    - target: {fileID: 481922, guid: d93ec03b51f37fd4d905a60a08a4fbbc, type: 3}
      propertyPath: m_LocalRotation.z
      value: 0
      objectReference: {fileID: 0}
    m_RemovedComponents: []
  m_SourcePrefab: {fileID: 100100000, guid: d93ec03b51f37fd4d905a60a08a4fbbc, type: 3}
--- !u!4 &18339983 stripped
Transform:
  m_CorrespondingSourceObject: {fileID: 481922, guid: d93ec03b51f37fd4d905a60a08a4fbbc, type: 3}
  m_PrefabInstance: {fileID: 18339982}
  m_PrefabAsset: {fileID: 0}
--- !u!1001 &193259061
PrefabInstance:
  m_ObjectHideFlags: 0
  serializedVersion: 2
  m_Modification:
    m_TransformParent: {fileID: 1603946219}
    m_Modifications:
    - target: {fileID: 494650, guid: 9838f503122e261409e6efaf72c2a6b2, type: 3}
      propertyPath: m_RootOrder
      value: 2
      objectReference: {fileID: 0}
    - target: {fileID: 494650, guid: 9838f503122e261409e6efaf72c2a6b2, type: 3}
      propertyPath: m_LocalPosition.x
      value: 0
      objectReference: {fileID: 0}
    - target: {fileID: 494650, guid: 9838f503122e261409e6efaf72c2a6b2, type: 3}
      propertyPath: m_LocalPosition.y
      value: 0
      objectReference: {fileID: 0}
    - target: {fileID: 494650, guid: 9838f503122e261409e6efaf72c2a6b2, type: 3}
      propertyPath: m_LocalPosition.z
      value: 0
      objectReference: {fileID: 0}
    - target: {fileID: 494650, guid: 9838f503122e261409e6efaf72c2a6b2, type: 3}
      propertyPath: m_LocalRotation.w
      value: 1
      objectReference: {fileID: 0}
    - target: {fileID: 494650, guid: 9838f503122e261409e6efaf72c2a6b2, type: 3}
      propertyPath: m_LocalRotation.x
      value: 0
      objectReference: {fileID: 0}
    - target: {fileID: 494650, guid: 9838f503122e261409e6efaf72c2a6b2, type: 3}
      propertyPath: m_LocalRotation.y
      value: 0
      objectReference: {fileID: 0}
    - target: {fileID: 494650, guid: 9838f503122e261409e6efaf72c2a6b2, type: 3}
      propertyPath: m_LocalRotation.z
      value: 0
      objectReference: {fileID: 0}
    m_RemovedComponents: []
  m_SourcePrefab: {fileID: 100100000, guid: 9838f503122e261409e6efaf72c2a6b2, type: 3}
--- !u!1001 &231947882
PrefabInstance:
  m_ObjectHideFlags: 0
  serializedVersion: 2
  m_Modification:
    m_TransformParent: {fileID: 1075876286}
    m_Modifications:
    - target: {fileID: 448766, guid: 1bbb9f65959851443977b14c98740663, type: 3}
      propertyPath: m_RootOrder
      value: 3
      objectReference: {fileID: 0}
    - target: {fileID: 448766, guid: 1bbb9f65959851443977b14c98740663, type: 3}
      propertyPath: m_LocalPosition.x
      value: 6
      objectReference: {fileID: 0}
    - target: {fileID: 448766, guid: 1bbb9f65959851443977b14c98740663, type: 3}
      propertyPath: m_LocalPosition.y
      value: 0
      objectReference: {fileID: 0}
    - target: {fileID: 448766, guid: 1bbb9f65959851443977b14c98740663, type: 3}
      propertyPath: m_LocalPosition.z
      value: 0
      objectReference: {fileID: 0}
    - target: {fileID: 448766, guid: 1bbb9f65959851443977b14c98740663, type: 3}
      propertyPath: m_LocalRotation.w
      value: 1
      objectReference: {fileID: 0}
    - target: {fileID: 448766, guid: 1bbb9f65959851443977b14c98740663, type: 3}
      propertyPath: m_LocalRotation.x
      value: 0
      objectReference: {fileID: 0}
    - target: {fileID: 448766, guid: 1bbb9f65959851443977b14c98740663, type: 3}
      propertyPath: m_LocalRotation.y
      value: 0
      objectReference: {fileID: 0}
    - target: {fileID: 448766, guid: 1bbb9f65959851443977b14c98740663, type: 3}
      propertyPath: m_LocalRotation.z
      value: 0
      objectReference: {fileID: 0}
    m_RemovedComponents: []
  m_SourcePrefab: {fileID: 100100000, guid: 1bbb9f65959851443977b14c98740663, type: 3}
--- !u!4 &231947883 stripped
Transform:
  m_CorrespondingSourceObject: {fileID: 448766, guid: 1bbb9f65959851443977b14c98740663, type: 3}
  m_PrefabInstance: {fileID: 231947882}
  m_PrefabAsset: {fileID: 0}
--- !u!1001 &255644571
PrefabInstance:
  m_ObjectHideFlags: 0
  serializedVersion: 2
  m_Modification:
    m_TransformParent: {fileID: 1075876286}
    m_Modifications:
    - target: {fileID: 499504, guid: 5c5d6555d9ad54d49a4654c80774e668, type: 3}
      propertyPath: m_RootOrder
      value: 12
      objectReference: {fileID: 0}
    - target: {fileID: 499504, guid: 5c5d6555d9ad54d49a4654c80774e668, type: 3}
      propertyPath: m_LocalPosition.x
      value: 0
      objectReference: {fileID: 0}
    - target: {fileID: 499504, guid: 5c5d6555d9ad54d49a4654c80774e668, type: 3}
      propertyPath: m_LocalPosition.y
      value: 0
      objectReference: {fileID: 0}
    - target: {fileID: 499504, guid: 5c5d6555d9ad54d49a4654c80774e668, type: 3}
      propertyPath: m_LocalPosition.z
      value: 6
      objectReference: {fileID: 0}
    - target: {fileID: 499504, guid: 5c5d6555d9ad54d49a4654c80774e668, type: 3}
      propertyPath: m_LocalRotation.w
      value: 1
      objectReference: {fileID: 0}
    - target: {fileID: 499504, guid: 5c5d6555d9ad54d49a4654c80774e668, type: 3}
      propertyPath: m_LocalRotation.x
      value: 0
      objectReference: {fileID: 0}
    - target: {fileID: 499504, guid: 5c5d6555d9ad54d49a4654c80774e668, type: 3}
      propertyPath: m_LocalRotation.y
      value: 0
      objectReference: {fileID: 0}
    - target: {fileID: 499504, guid: 5c5d6555d9ad54d49a4654c80774e668, type: 3}
      propertyPath: m_LocalRotation.z
      value: 0
      objectReference: {fileID: 0}
    m_RemovedComponents: []
  m_SourcePrefab: {fileID: 100100000, guid: 5c5d6555d9ad54d49a4654c80774e668, type: 3}
--- !u!4 &255644572 stripped
Transform:
  m_CorrespondingSourceObject: {fileID: 499504, guid: 5c5d6555d9ad54d49a4654c80774e668, type: 3}
  m_PrefabInstance: {fileID: 255644571}
  m_PrefabAsset: {fileID: 0}
--- !u!1 &597986481
GameObject:
  m_ObjectHideFlags: 0
  m_CorrespondingSourceObject: {fileID: 0}
  m_PrefabInstance: {fileID: 0}
  m_PrefabAsset: {fileID: 0}
  serializedVersion: 6
  m_Component:
  - component: {fileID: 597986482}
  - component: {fileID: 597986486}
  - component: {fileID: 597986485}
  - component: {fileID: 597986483}
  m_Layer: 0
  m_Name: camera
  m_TagString: Untagged
  m_Icon: {fileID: 0}
  m_NavMeshLayer: 0
  m_StaticEditorFlags: 0
  m_IsActive: 1
--- !u!4 &597986482
Transform:
  m_ObjectHideFlags: 0
  m_CorrespondingSourceObject: {fileID: 0}
  m_PrefabInstance: {fileID: 0}
  m_PrefabAsset: {fileID: 0}
  m_GameObject: {fileID: 597986481}
  m_LocalRotation: {x: 0.2760999, y: -0.18227133, z: 0.0534138, w: 0.9421747}
  m_LocalPosition: {x: 7.46, y: 7.97, z: -9.08}
  m_LocalScale: {x: 1, y: 1, z: 1}
  m_Children: []
  m_Father: {fileID: 1603946219}
  m_RootOrder: 0
  m_LocalEulerAnglesHint: {x: 0, y: 0, z: 0}
--- !u!81 &597986483
AudioListener:
  m_ObjectHideFlags: 0
  m_CorrespondingSourceObject: {fileID: 0}
  m_PrefabInstance: {fileID: 0}
  m_PrefabAsset: {fileID: 0}
  m_GameObject: {fileID: 597986481}
  m_Enabled: 1
--- !u!124 &597986485
Behaviour:
  m_ObjectHideFlags: 0
  m_CorrespondingSourceObject: {fileID: 0}
  m_PrefabInstance: {fileID: 0}
  m_PrefabAsset: {fileID: 0}
  m_GameObject: {fileID: 597986481}
  m_Enabled: 1
--- !u!20 &597986486
Camera:
  m_ObjectHideFlags: 0
  m_CorrespondingSourceObject: {fileID: 0}
  m_PrefabInstance: {fileID: 0}
  m_PrefabAsset: {fileID: 0}
  m_GameObject: {fileID: 597986481}
  m_Enabled: 1
  serializedVersion: 2
  m_ClearFlags: 2
  m_BackGroundColor: {r: 0.10196078, g: 0.10196078, b: 0.10196078, a: 1}
  m_projectionMatrixMode: 1
  m_GateFitMode: 2
  m_FOVAxisMode: 0
  m_SensorSize: {x: 36, y: 24}
  m_LensShift: {x: 0, y: 0}
  m_FocalLength: 50
  m_NormalizedViewPortRect:
    serializedVersion: 2
    x: 0
    y: 0
    width: 1
    height: 1
  near clip plane: 0.3
  far clip plane: 1000
  field of view: 60
  orthographic: 0
  orthographic size: 5
  m_Depth: 0
  m_CullingMask:
    serializedVersion: 2
    m_Bits: 4294967295
  m_RenderingPath: -1
  m_TargetTexture: {fileID: 0}
  m_TargetDisplay: 0
  m_TargetEye: 3
  m_HDR: 0
  m_AllowMSAA: 1
  m_AllowDynamicResolution: 0
  m_ForceIntoRT: 0
  m_OcclusionCulling: 1
  m_StereoConvergence: 10
  m_StereoSeparation: 0.022
--- !u!1001 &710605153
PrefabInstance:
  m_ObjectHideFlags: 0
  serializedVersion: 2
  m_Modification:
    m_TransformParent: {fileID: 1075876286}
    m_Modifications:
    - target: {fileID: 430148, guid: 7505f79cb619cfd4ebb6af0704ad4260, type: 3}
      propertyPath: m_RootOrder
      value: 15
      objectReference: {fileID: 0}
    - target: {fileID: 430148, guid: 7505f79cb619cfd4ebb6af0704ad4260, type: 3}
      propertyPath: m_LocalPosition.x
      value: 6
      objectReference: {fileID: 0}
    - target: {fileID: 430148, guid: 7505f79cb619cfd4ebb6af0704ad4260, type: 3}
      propertyPath: m_LocalPosition.y
      value: 0
      objectReference: {fileID: 0}
    - target: {fileID: 430148, guid: 7505f79cb619cfd4ebb6af0704ad4260, type: 3}
      propertyPath: m_LocalPosition.z
      value: 6
      objectReference: {fileID: 0}
    - target: {fileID: 430148, guid: 7505f79cb619cfd4ebb6af0704ad4260, type: 3}
      propertyPath: m_LocalRotation.w
      value: 1
      objectReference: {fileID: 0}
    - target: {fileID: 430148, guid: 7505f79cb619cfd4ebb6af0704ad4260, type: 3}
      propertyPath: m_LocalRotation.x
      value: 0
      objectReference: {fileID: 0}
    - target: {fileID: 430148, guid: 7505f79cb619cfd4ebb6af0704ad4260, type: 3}
      propertyPath: m_LocalRotation.y
      value: 0
      objectReference: {fileID: 0}
    - target: {fileID: 430148, guid: 7505f79cb619cfd4ebb6af0704ad4260, type: 3}
      propertyPath: m_LocalRotation.z
      value: 0
      objectReference: {fileID: 0}
    m_RemovedComponents: []
  m_SourcePrefab: {fileID: 100100000, guid: 7505f79cb619cfd4ebb6af0704ad4260, type: 3}
--- !u!4 &710605154 stripped
Transform:
  m_CorrespondingSourceObject: {fileID: 430148, guid: 7505f79cb619cfd4ebb6af0704ad4260, type: 3}
  m_PrefabInstance: {fileID: 710605153}
  m_PrefabAsset: {fileID: 0}
--- !u!1001 &732830951
PrefabInstance:
  m_ObjectHideFlags: 0
  serializedVersion: 2
  m_Modification:
    m_TransformParent: {fileID: 1075876286}
    m_Modifications:
    - target: {fileID: 481390, guid: 9991b226736b6964782c28d07cef8881, type: 3}
      propertyPath: m_RootOrder
      value: 7
      objectReference: {fileID: 0}
    - target: {fileID: 481390, guid: 9991b226736b6964782c28d07cef8881, type: 3}
      propertyPath: m_LocalPosition.x
      value: 6
      objectReference: {fileID: 0}
    - target: {fileID: 481390, guid: 9991b226736b6964782c28d07cef8881, type: 3}
      propertyPath: m_LocalPosition.y
      value: 0
      objectReference: {fileID: 0}
    - target: {fileID: 481390, guid: 9991b226736b6964782c28d07cef8881, type: 3}
      propertyPath: m_LocalPosition.z
      value: 2
      objectReference: {fileID: 0}
    - target: {fileID: 481390, guid: 9991b226736b6964782c28d07cef8881, type: 3}
      propertyPath: m_LocalRotation.w
      value: 1
      objectReference: {fileID: 0}
    - target: {fileID: 481390, guid: 9991b226736b6964782c28d07cef8881, type: 3}
      propertyPath: m_LocalRotation.x
      value: 0
      objectReference: {fileID: 0}
    - target: {fileID: 481390, guid: 9991b226736b6964782c28d07cef8881, type: 3}
      propertyPath: m_LocalRotation.y
      value: 0
      objectReference: {fileID: 0}
    - target: {fileID: 481390, guid: 9991b226736b6964782c28d07cef8881, type: 3}
      propertyPath: m_LocalRotation.z
      value: 0
      objectReference: {fileID: 0}
    m_RemovedComponents: []
  m_SourcePrefab: {fileID: 100100000, guid: 9991b226736b6964782c28d07cef8881, type: 3}
--- !u!4 &732830952 stripped
Transform:
  m_CorrespondingSourceObject: {fileID: 481390, guid: 9991b226736b6964782c28d07cef8881, type: 3}
  m_PrefabInstance: {fileID: 732830951}
  m_PrefabAsset: {fileID: 0}
--- !u!1001 &903298912
PrefabInstance:
  m_ObjectHideFlags: 0
  serializedVersion: 2
  m_Modification:
    m_TransformParent: {fileID: 1075876286}
    m_Modifications:
    - target: {fileID: 422286, guid: 1643ab6b0160ab240a595db4bfb21c56, type: 3}
      propertyPath: m_RootOrder
      value: 9
      objectReference: {fileID: 0}
    - target: {fileID: 422286, guid: 1643ab6b0160ab240a595db4bfb21c56, type: 3}
      propertyPath: m_LocalPosition.x
      value: 2
      objectReference: {fileID: 0}
    - target: {fileID: 422286, guid: 1643ab6b0160ab240a595db4bfb21c56, type: 3}
      propertyPath: m_LocalPosition.y
      value: 0
      objectReference: {fileID: 0}
    - target: {fileID: 422286, guid: 1643ab6b0160ab240a595db4bfb21c56, type: 3}
      propertyPath: m_LocalPosition.z
      value: 4
      objectReference: {fileID: 0}
    - target: {fileID: 422286, guid: 1643ab6b0160ab240a595db4bfb21c56, type: 3}
      propertyPath: m_LocalRotation.w
      value: 1
      objectReference: {fileID: 0}
    - target: {fileID: 422286, guid: 1643ab6b0160ab240a595db4bfb21c56, type: 3}
      propertyPath: m_LocalRotation.x
      value: 0
      objectReference: {fileID: 0}
    - target: {fileID: 422286, guid: 1643ab6b0160ab240a595db4bfb21c56, type: 3}
      propertyPath: m_LocalRotation.y
      value: 0
      objectReference: {fileID: 0}
    - target: {fileID: 422286, guid: 1643ab6b0160ab240a595db4bfb21c56, type: 3}
      propertyPath: m_LocalRotation.z
      value: 0
      objectReference: {fileID: 0}
    m_RemovedComponents: []
  m_SourcePrefab: {fileID: 100100000, guid: 1643ab6b0160ab240a595db4bfb21c56, type: 3}
--- !u!4 &903298913 stripped
Transform:
  m_CorrespondingSourceObject: {fileID: 422286, guid: 1643ab6b0160ab240a595db4bfb21c56, type: 3}
  m_PrefabInstance: {fileID: 903298912}
  m_PrefabAsset: {fileID: 0}
--- !u!1001 &991969649
PrefabInstance:
  m_ObjectHideFlags: 0
  serializedVersion: 2
  m_Modification:
    m_TransformParent: {fileID: 1075876286}
    m_Modifications:
    - target: {fileID: 493472, guid: ca5c291357dc8c54bbb0f485cdccdf17, type: 3}
      propertyPath: m_RootOrder
      value: 14
      objectReference: {fileID: 0}
    - target: {fileID: 493472, guid: ca5c291357dc8c54bbb0f485cdccdf17, type: 3}
      propertyPath: m_LocalPosition.x
      value: 4
      objectReference: {fileID: 0}
    - target: {fileID: 493472, guid: ca5c291357dc8c54bbb0f485cdccdf17, type: 3}
      propertyPath: m_LocalPosition.y
      value: 0
      objectReference: {fileID: 0}
    - target: {fileID: 493472, guid: ca5c291357dc8c54bbb0f485cdccdf17, type: 3}
      propertyPath: m_LocalPosition.z
      value: 6
      objectReference: {fileID: 0}
    - target: {fileID: 493472, guid: ca5c291357dc8c54bbb0f485cdccdf17, type: 3}
      propertyPath: m_LocalRotation.w
      value: 1
      objectReference: {fileID: 0}
    - target: {fileID: 493472, guid: ca5c291357dc8c54bbb0f485cdccdf17, type: 3}
      propertyPath: m_LocalRotation.x
      value: 0
      objectReference: {fileID: 0}
    - target: {fileID: 493472, guid: ca5c291357dc8c54bbb0f485cdccdf17, type: 3}
      propertyPath: m_LocalRotation.y
      value: 0
      objectReference: {fileID: 0}
    - target: {fileID: 493472, guid: ca5c291357dc8c54bbb0f485cdccdf17, type: 3}
      propertyPath: m_LocalRotation.z
      value: 0
      objectReference: {fileID: 0}
    m_RemovedComponents: []
  m_SourcePrefab: {fileID: 100100000, guid: ca5c291357dc8c54bbb0f485cdccdf17, type: 3}
--- !u!4 &991969650 stripped
Transform:
  m_CorrespondingSourceObject: {fileID: 493472, guid: ca5c291357dc8c54bbb0f485cdccdf17, type: 3}
  m_PrefabInstance: {fileID: 991969649}
  m_PrefabAsset: {fileID: 0}
--- !u!1 &1075876285
GameObject:
  m_ObjectHideFlags: 0
  m_CorrespondingSourceObject: {fileID: 0}
  m_PrefabInstance: {fileID: 0}
  m_PrefabAsset: {fileID: 0}
  serializedVersion: 6
  m_Component:
  - component: {fileID: 1075876286}
  m_Layer: 0
  m_Name: rocks
  m_TagString: Untagged
  m_Icon: {fileID: 0}
  m_NavMeshLayer: 0
  m_StaticEditorFlags: 0
  m_IsActive: 1
--- !u!4 &1075876286
Transform:
  m_ObjectHideFlags: 0
  m_CorrespondingSourceObject: {fileID: 0}
  m_PrefabInstance: {fileID: 0}
  m_PrefabAsset: {fileID: 0}
  m_GameObject: {fileID: 1075876285}
  m_LocalRotation: {x: 0, y: 0, z: 0, w: 1}
  m_LocalPosition: {x: 0, y: 0, z: 0}
  m_LocalScale: {x: 1, y: 1, z: 1}
  m_Children:
  - {fileID: 18339983}
  - {fileID: 1564541710}
  - {fileID: 1407276776}
  - {fileID: 231947883}
  - {fileID: 1455511922}
  - {fileID: 2128971830}
  - {fileID: 1925551411}
  - {fileID: 732830952}
  - {fileID: 1545503307}
  - {fileID: 903298913}
  - {fileID: 1262636575}
  - {fileID: 1917887213}
  - {fileID: 255644572}
  - {fileID: 1739799302}
  - {fileID: 991969650}
  - {fileID: 710605154}
  m_Father: {fileID: 0}
  m_RootOrder: 1
  m_LocalEulerAnglesHint: {x: 0, y: 0, z: 0}
--- !u!1001 &1262636574
PrefabInstance:
  m_ObjectHideFlags: 0
  serializedVersion: 2
  m_Modification:
    m_TransformParent: {fileID: 1075876286}
    m_Modifications:
    - target: {fileID: 436498, guid: bb7975b4ee3bc3f40b9b2faf7e4636a2, type: 3}
      propertyPath: m_RootOrder
      value: 10
      objectReference: {fileID: 0}
    - target: {fileID: 436498, guid: bb7975b4ee3bc3f40b9b2faf7e4636a2, type: 3}
      propertyPath: m_LocalPosition.x
      value: 4
      objectReference: {fileID: 0}
    - target: {fileID: 436498, guid: bb7975b4ee3bc3f40b9b2faf7e4636a2, type: 3}
      propertyPath: m_LocalPosition.y
      value: 0
      objectReference: {fileID: 0}
    - target: {fileID: 436498, guid: bb7975b4ee3bc3f40b9b2faf7e4636a2, type: 3}
      propertyPath: m_LocalPosition.z
      value: 4
      objectReference: {fileID: 0}
    - target: {fileID: 436498, guid: bb7975b4ee3bc3f40b9b2faf7e4636a2, type: 3}
      propertyPath: m_LocalRotation.w
      value: 1
      objectReference: {fileID: 0}
    - target: {fileID: 436498, guid: bb7975b4ee3bc3f40b9b2faf7e4636a2, type: 3}
      propertyPath: m_LocalRotation.x
      value: 0
      objectReference: {fileID: 0}
    - target: {fileID: 436498, guid: bb7975b4ee3bc3f40b9b2faf7e4636a2, type: 3}
      propertyPath: m_LocalRotation.y
      value: 0
      objectReference: {fileID: 0}
    - target: {fileID: 436498, guid: bb7975b4ee3bc3f40b9b2faf7e4636a2, type: 3}
      propertyPath: m_LocalRotation.z
      value: 0
      objectReference: {fileID: 0}
    m_RemovedComponents: []
  m_SourcePrefab: {fileID: 100100000, guid: bb7975b4ee3bc3f40b9b2faf7e4636a2, type: 3}
--- !u!4 &1262636575 stripped
Transform:
  m_CorrespondingSourceObject: {fileID: 436498, guid: bb7975b4ee3bc3f40b9b2faf7e4636a2, type: 3}
  m_PrefabInstance: {fileID: 1262636574}
  m_PrefabAsset: {fileID: 0}
--- !u!1001 &1407276775
PrefabInstance:
  m_ObjectHideFlags: 0
  serializedVersion: 2
  m_Modification:
    m_TransformParent: {fileID: 1075876286}
    m_Modifications:
    - target: {fileID: 408656, guid: 6a67aaef2f6b30443ac78ea7d762a346, type: 3}
      propertyPath: m_RootOrder
      value: 2
      objectReference: {fileID: 0}
    - target: {fileID: 408656, guid: 6a67aaef2f6b30443ac78ea7d762a346, type: 3}
      propertyPath: m_LocalPosition.x
      value: 4
      objectReference: {fileID: 0}
    - target: {fileID: 408656, guid: 6a67aaef2f6b30443ac78ea7d762a346, type: 3}
      propertyPath: m_LocalPosition.y
      value: 0
      objectReference: {fileID: 0}
    - target: {fileID: 408656, guid: 6a67aaef2f6b30443ac78ea7d762a346, type: 3}
      propertyPath: m_LocalPosition.z
      value: 0
      objectReference: {fileID: 0}
    - target: {fileID: 408656, guid: 6a67aaef2f6b30443ac78ea7d762a346, type: 3}
      propertyPath: m_LocalRotation.w
      value: 1
      objectReference: {fileID: 0}
    - target: {fileID: 408656, guid: 6a67aaef2f6b30443ac78ea7d762a346, type: 3}
      propertyPath: m_LocalRotation.x
      value: 0
      objectReference: {fileID: 0}
    - target: {fileID: 408656, guid: 6a67aaef2f6b30443ac78ea7d762a346, type: 3}
      propertyPath: m_LocalRotation.y
      value: 0
      objectReference: {fileID: 0}
    - target: {fileID: 408656, guid: 6a67aaef2f6b30443ac78ea7d762a346, type: 3}
      propertyPath: m_LocalRotation.z
      value: 0
      objectReference: {fileID: 0}
    m_RemovedComponents: []
  m_SourcePrefab: {fileID: 100100000, guid: 6a67aaef2f6b30443ac78ea7d762a346, type: 3}
--- !u!4 &1407276776 stripped
Transform:
  m_CorrespondingSourceObject: {fileID: 408656, guid: 6a67aaef2f6b30443ac78ea7d762a346, type: 3}
  m_PrefabInstance: {fileID: 1407276775}
  m_PrefabAsset: {fileID: 0}
--- !u!1001 &1455511921
PrefabInstance:
  m_ObjectHideFlags: 0
  serializedVersion: 2
  m_Modification:
    m_TransformParent: {fileID: 1075876286}
    m_Modifications:
    - target: {fileID: 416522, guid: bee8d047e16101c438fb33382ab66935, type: 3}
      propertyPath: m_RootOrder
      value: 4
      objectReference: {fileID: 0}
    - target: {fileID: 416522, guid: bee8d047e16101c438fb33382ab66935, type: 3}
      propertyPath: m_LocalPosition.x
      value: 0
      objectReference: {fileID: 0}
    - target: {fileID: 416522, guid: bee8d047e16101c438fb33382ab66935, type: 3}
      propertyPath: m_LocalPosition.y
      value: 0
      objectReference: {fileID: 0}
    - target: {fileID: 416522, guid: bee8d047e16101c438fb33382ab66935, type: 3}
      propertyPath: m_LocalPosition.z
      value: 2
      objectReference: {fileID: 0}
    - target: {fileID: 416522, guid: bee8d047e16101c438fb33382ab66935, type: 3}
      propertyPath: m_LocalRotation.w
      value: 1
      objectReference: {fileID: 0}
    - target: {fileID: 416522, guid: bee8d047e16101c438fb33382ab66935, type: 3}
      propertyPath: m_LocalRotation.x
      value: 0
      objectReference: {fileID: 0}
    - target: {fileID: 416522, guid: bee8d047e16101c438fb33382ab66935, type: 3}
      propertyPath: m_LocalRotation.y
      value: 0
      objectReference: {fileID: 0}
    - target: {fileID: 416522, guid: bee8d047e16101c438fb33382ab66935, type: 3}
      propertyPath: m_LocalRotation.z
      value: 0
      objectReference: {fileID: 0}
    m_RemovedComponents: []
  m_SourcePrefab: {fileID: 100100000, guid: bee8d047e16101c438fb33382ab66935, type: 3}
--- !u!4 &1455511922 stripped
Transform:
  m_CorrespondingSourceObject: {fileID: 416522, guid: bee8d047e16101c438fb33382ab66935, type: 3}
  m_PrefabInstance: {fileID: 1455511921}
  m_PrefabAsset: {fileID: 0}
--- !u!1001 &1545503306
PrefabInstance:
  m_ObjectHideFlags: 0
  serializedVersion: 2
  m_Modification:
    m_TransformParent: {fileID: 1075876286}
    m_Modifications:
    - target: {fileID: 449506, guid: c04bdda845329ad4ca2003872a1e4b82, type: 3}
      propertyPath: m_RootOrder
      value: 8
      objectReference: {fileID: 0}
    - target: {fileID: 449506, guid: c04bdda845329ad4ca2003872a1e4b82, type: 3}
      propertyPath: m_LocalPosition.x
      value: 0
      objectReference: {fileID: 0}
    - target: {fileID: 449506, guid: c04bdda845329ad4ca2003872a1e4b82, type: 3}
      propertyPath: m_LocalPosition.y
      value: 0
      objectReference: {fileID: 0}
    - target: {fileID: 449506, guid: c04bdda845329ad4ca2003872a1e4b82, type: 3}
      propertyPath: m_LocalPosition.z
      value: 4
      objectReference: {fileID: 0}
    - target: {fileID: 449506, guid: c04bdda845329ad4ca2003872a1e4b82, type: 3}
      propertyPath: m_LocalRotation.w
      value: 1
      objectReference: {fileID: 0}
    - target: {fileID: 449506, guid: c04bdda845329ad4ca2003872a1e4b82, type: 3}
      propertyPath: m_LocalRotation.x
      value: 0
      objectReference: {fileID: 0}
    - target: {fileID: 449506, guid: c04bdda845329ad4ca2003872a1e4b82, type: 3}
      propertyPath: m_LocalRotation.y
      value: 0
      objectReference: {fileID: 0}
    - target: {fileID: 449506, guid: c04bdda845329ad4ca2003872a1e4b82, type: 3}
      propertyPath: m_LocalRotation.z
      value: 0
      objectReference: {fileID: 0}
    m_RemovedComponents: []
  m_SourcePrefab: {fileID: 100100000, guid: c04bdda845329ad4ca2003872a1e4b82, type: 3}
--- !u!4 &1545503307 stripped
Transform:
  m_CorrespondingSourceObject: {fileID: 449506, guid: c04bdda845329ad4ca2003872a1e4b82, type: 3}
  m_PrefabInstance: {fileID: 1545503306}
  m_PrefabAsset: {fileID: 0}
--- !u!1001 &1564541708
PrefabInstance:
  m_ObjectHideFlags: 0
  serializedVersion: 2
  m_Modification:
    m_TransformParent: {fileID: 1075876286}
    m_Modifications:
    - target: {fileID: 440648, guid: 4436f5b141ae4074082424c09570acb3, type: 3}
      propertyPath: m_RootOrder
      value: 1
      objectReference: {fileID: 0}
    - target: {fileID: 440648, guid: 4436f5b141ae4074082424c09570acb3, type: 3}
      propertyPath: m_LocalPosition.x
      value: 2
      objectReference: {fileID: 0}
    - target: {fileID: 440648, guid: 4436f5b141ae4074082424c09570acb3, type: 3}
      propertyPath: m_LocalPosition.y
      value: 0
      objectReference: {fileID: 0}
    - target: {fileID: 440648, guid: 4436f5b141ae4074082424c09570acb3, type: 3}
      propertyPath: m_LocalPosition.z
      value: 0
      objectReference: {fileID: 0}
    - target: {fileID: 440648, guid: 4436f5b141ae4074082424c09570acb3, type: 3}
      propertyPath: m_LocalRotation.w
      value: 1
      objectReference: {fileID: 0}
    - target: {fileID: 440648, guid: 4436f5b141ae4074082424c09570acb3, type: 3}
      propertyPath: m_LocalRotation.x
      value: 0
      objectReference: {fileID: 0}
    - target: {fileID: 440648, guid: 4436f5b141ae4074082424c09570acb3, type: 3}
      propertyPath: m_LocalRotation.y
      value: 0
      objectReference: {fileID: 0}
    - target: {fileID: 440648, guid: 4436f5b141ae4074082424c09570acb3, type: 3}
      propertyPath: m_LocalRotation.z
      value: 0
      objectReference: {fileID: 0}
    m_RemovedComponents: []
  m_SourcePrefab: {fileID: 100100000, guid: 4436f5b141ae4074082424c09570acb3, type: 3}
--- !u!4 &1564541710 stripped
Transform:
  m_CorrespondingSourceObject: {fileID: 440648, guid: 4436f5b141ae4074082424c09570acb3, type: 3}
  m_PrefabInstance: {fileID: 1564541708}
  m_PrefabAsset: {fileID: 0}
--- !u!1 &1603946218
GameObject:
  m_ObjectHideFlags: 0
  m_CorrespondingSourceObject: {fileID: 0}
  m_PrefabInstance: {fileID: 0}
  m_PrefabAsset: {fileID: 0}
  serializedVersion: 6
  m_Component:
  - component: {fileID: 1603946219}
  m_Layer: 0
  m_Name: environment
  m_TagString: Untagged
  m_Icon: {fileID: 0}
  m_NavMeshLayer: 0
  m_StaticEditorFlags: 0
  m_IsActive: 1
--- !u!4 &1603946219
Transform:
  m_ObjectHideFlags: 0
  m_CorrespondingSourceObject: {fileID: 0}
  m_PrefabInstance: {fileID: 0}
  m_PrefabAsset: {fileID: 0}
  m_GameObject: {fileID: 1603946218}
  m_LocalRotation: {x: 0, y: 0, z: 0, w: 1}
  m_LocalPosition: {x: 0, y: 0, z: 0}
  m_LocalScale: {x: 1, y: 1, z: 1}
  m_Children:
  - {fileID: 597986482}
  - {fileID: 1629676749}
  - {fileID: 1858142667}
  m_Father: {fileID: 0}
  m_RootOrder: 0
  m_LocalEulerAnglesHint: {x: 0, y: 0, z: 0}
--- !u!1001 &1629676748
PrefabInstance:
  m_ObjectHideFlags: 0
  serializedVersion: 2
  m_Modification:
    m_TransformParent: {fileID: 1603946219}
    m_Modifications:
    - target: {fileID: 100000, guid: 42ab0f5c5332fef489b547c33416feda, type: 3}
      propertyPath: m_IsActive
      value: 1
      objectReference: {fileID: 0}
    - target: {fileID: 400000, guid: 42ab0f5c5332fef489b547c33416feda, type: 3}
      propertyPath: m_RootOrder
      value: 1
      objectReference: {fileID: 0}
    - target: {fileID: 400000, guid: 42ab0f5c5332fef489b547c33416feda, type: 3}
      propertyPath: m_LocalPosition.x
      value: 0
      objectReference: {fileID: 0}
    - target: {fileID: 400000, guid: 42ab0f5c5332fef489b547c33416feda, type: 3}
      propertyPath: m_LocalPosition.y
      value: 0
      objectReference: {fileID: 0}
    - target: {fileID: 400000, guid: 42ab0f5c5332fef489b547c33416feda, type: 3}
      propertyPath: m_LocalPosition.z
      value: 0
      objectReference: {fileID: 0}
    - target: {fileID: 400000, guid: 42ab0f5c5332fef489b547c33416feda, type: 3}
      propertyPath: m_LocalRotation.w
      value: 1
      objectReference: {fileID: 0}
    - target: {fileID: 400000, guid: 42ab0f5c5332fef489b547c33416feda, type: 3}
      propertyPath: m_LocalRotation.x
      value: 0
      objectReference: {fileID: 0}
    - target: {fileID: 400000, guid: 42ab0f5c5332fef489b547c33416feda, type: 3}
      propertyPath: m_LocalRotation.y
      value: 0
      objectReference: {fileID: 0}
    - target: {fileID: 400000, guid: 42ab0f5c5332fef489b547c33416feda, type: 3}
      propertyPath: m_LocalRotation.z
      value: 0
      objectReference: {fileID: 0}
    - target: {fileID: 2300000, guid: 42ab0f5c5332fef489b547c33416feda, type: 3}
      propertyPath: m_Materials.Array.data[0]
      value: 
      objectReference: {fileID: 2100000, guid: 3e9f0db9ec9f43b48be4e019a749f8be, type: 2}
    m_RemovedComponents: []
  m_SourcePrefab: {fileID: 100100000, guid: 42ab0f5c5332fef489b547c33416feda, type: 3}
--- !u!4 &1629676749 stripped
Transform:
  m_CorrespondingSourceObject: {fileID: 400000, guid: 42ab0f5c5332fef489b547c33416feda, type: 3}
  m_PrefabInstance: {fileID: 1629676748}
  m_PrefabAsset: {fileID: 0}
--- !u!1001 &1739799301
PrefabInstance:
  m_ObjectHideFlags: 0
  serializedVersion: 2
  m_Modification:
    m_TransformParent: {fileID: 1075876286}
    m_Modifications:
    - target: {fileID: 437022, guid: de863afb481be364ea04e5a347f5967f, type: 3}
      propertyPath: m_RootOrder
      value: 13
      objectReference: {fileID: 0}
    - target: {fileID: 437022, guid: de863afb481be364ea04e5a347f5967f, type: 3}
      propertyPath: m_LocalPosition.x
      value: 2
      objectReference: {fileID: 0}
    - target: {fileID: 437022, guid: de863afb481be364ea04e5a347f5967f, type: 3}
      propertyPath: m_LocalPosition.y
      value: 0
      objectReference: {fileID: 0}
    - target: {fileID: 437022, guid: de863afb481be364ea04e5a347f5967f, type: 3}
      propertyPath: m_LocalPosition.z
      value: 6
      objectReference: {fileID: 0}
    - target: {fileID: 437022, guid: de863afb481be364ea04e5a347f5967f, type: 3}
      propertyPath: m_LocalRotation.w
      value: 1
      objectReference: {fileID: 0}
    - target: {fileID: 437022, guid: de863afb481be364ea04e5a347f5967f, type: 3}
      propertyPath: m_LocalRotation.x
      value: 0
      objectReference: {fileID: 0}
    - target: {fileID: 437022, guid: de863afb481be364ea04e5a347f5967f, type: 3}
      propertyPath: m_LocalRotation.y
      value: 0
      objectReference: {fileID: 0}
    - target: {fileID: 437022, guid: de863afb481be364ea04e5a347f5967f, type: 3}
      propertyPath: m_LocalRotation.z
      value: 0
      objectReference: {fileID: 0}
    m_RemovedComponents: []
  m_SourcePrefab: {fileID: 100100000, guid: de863afb481be364ea04e5a347f5967f, type: 3}
--- !u!4 &1739799302 stripped
Transform:
  m_CorrespondingSourceObject: {fileID: 437022, guid: de863afb481be364ea04e5a347f5967f, type: 3}
  m_PrefabInstance: {fileID: 1739799301}
  m_PrefabAsset: {fileID: 0}
--- !u!4 &1858142667 stripped
Transform:
  m_CorrespondingSourceObject: {fileID: 494650, guid: 9838f503122e261409e6efaf72c2a6b2, type: 3}
  m_PrefabInstance: {fileID: 193259061}
  m_PrefabAsset: {fileID: 0}
--- !u!1001 &1917887212
PrefabInstance:
  m_ObjectHideFlags: 0
  serializedVersion: 2
  m_Modification:
    m_TransformParent: {fileID: 1075876286}
    m_Modifications:
    - target: {fileID: 434652, guid: d18bc5c5a34308844a5c5684e48318db, type: 3}
      propertyPath: m_RootOrder
      value: 11
      objectReference: {fileID: 0}
    - target: {fileID: 434652, guid: d18bc5c5a34308844a5c5684e48318db, type: 3}
      propertyPath: m_LocalPosition.x
      value: 6
      objectReference: {fileID: 0}
    - target: {fileID: 434652, guid: d18bc5c5a34308844a5c5684e48318db, type: 3}
      propertyPath: m_LocalPosition.y
      value: 0
      objectReference: {fileID: 0}
    - target: {fileID: 434652, guid: d18bc5c5a34308844a5c5684e48318db, type: 3}
      propertyPath: m_LocalPosition.z
      value: 4
      objectReference: {fileID: 0}
    - target: {fileID: 434652, guid: d18bc5c5a34308844a5c5684e48318db, type: 3}
      propertyPath: m_LocalRotation.w
      value: 1
      objectReference: {fileID: 0}
    - target: {fileID: 434652, guid: d18bc5c5a34308844a5c5684e48318db, type: 3}
      propertyPath: m_LocalRotation.x
      value: 0
      objectReference: {fileID: 0}
    - target: {fileID: 434652, guid: d18bc5c5a34308844a5c5684e48318db, type: 3}
      propertyPath: m_LocalRotation.y
      value: 0
      objectReference: {fileID: 0}
    - target: {fileID: 434652, guid: d18bc5c5a34308844a5c5684e48318db, type: 3}
      propertyPath: m_LocalRotation.z
      value: 0
      objectReference: {fileID: 0}
    m_RemovedComponents: []
  m_SourcePrefab: {fileID: 100100000, guid: d18bc5c5a34308844a5c5684e48318db, type: 3}
--- !u!4 &1917887213 stripped
Transform:
  m_CorrespondingSourceObject: {fileID: 434652, guid: d18bc5c5a34308844a5c5684e48318db, type: 3}
  m_PrefabInstance: {fileID: 1917887212}
  m_PrefabAsset: {fileID: 0}
--- !u!1001 &1925551410
PrefabInstance:
  m_ObjectHideFlags: 0
  serializedVersion: 2
  m_Modification:
    m_TransformParent: {fileID: 1075876286}
    m_Modifications:
    - target: {fileID: 404742, guid: e13d89ce323009a4a8a53d439b0a74e4, type: 3}
      propertyPath: m_RootOrder
      value: 6
      objectReference: {fileID: 0}
    - target: {fileID: 404742, guid: e13d89ce323009a4a8a53d439b0a74e4, type: 3}
      propertyPath: m_LocalPosition.x
      value: 4
      objectReference: {fileID: 0}
    - target: {fileID: 404742, guid: e13d89ce323009a4a8a53d439b0a74e4, type: 3}
      propertyPath: m_LocalPosition.y
      value: 0
      objectReference: {fileID: 0}
    - target: {fileID: 404742, guid: e13d89ce323009a4a8a53d439b0a74e4, type: 3}
      propertyPath: m_LocalPosition.z
      value: 2
      objectReference: {fileID: 0}
    - target: {fileID: 404742, guid: e13d89ce323009a4a8a53d439b0a74e4, type: 3}
      propertyPath: m_LocalRotation.w
      value: 1
      objectReference: {fileID: 0}
    - target: {fileID: 404742, guid: e13d89ce323009a4a8a53d439b0a74e4, type: 3}
      propertyPath: m_LocalRotation.x
      value: 0
      objectReference: {fileID: 0}
    - target: {fileID: 404742, guid: e13d89ce323009a4a8a53d439b0a74e4, type: 3}
      propertyPath: m_LocalRotation.y
      value: 0
      objectReference: {fileID: 0}
    - target: {fileID: 404742, guid: e13d89ce323009a4a8a53d439b0a74e4, type: 3}
      propertyPath: m_LocalRotation.z
      value: 0
      objectReference: {fileID: 0}
    m_RemovedComponents: []
  m_SourcePrefab: {fileID: 100100000, guid: e13d89ce323009a4a8a53d439b0a74e4, type: 3}
--- !u!4 &1925551411 stripped
Transform:
  m_CorrespondingSourceObject: {fileID: 404742, guid: e13d89ce323009a4a8a53d439b0a74e4, type: 3}
  m_PrefabInstance: {fileID: 1925551410}
  m_PrefabAsset: {fileID: 0}
--- !u!1001 &2128971829
PrefabInstance:
  m_ObjectHideFlags: 0
  serializedVersion: 2
  m_Modification:
    m_TransformParent: {fileID: 1075876286}
    m_Modifications:
    - target: {fileID: 496350, guid: 50673ce029549f04d8a30a3886523aad, type: 3}
      propertyPath: m_RootOrder
      value: 5
      objectReference: {fileID: 0}
    - target: {fileID: 496350, guid: 50673ce029549f04d8a30a3886523aad, type: 3}
      propertyPath: m_LocalPosition.x
      value: 2
      objectReference: {fileID: 0}
    - target: {fileID: 496350, guid: 50673ce029549f04d8a30a3886523aad, type: 3}
      propertyPath: m_LocalPosition.y
      value: 0
      objectReference: {fileID: 0}
    - target: {fileID: 496350, guid: 50673ce029549f04d8a30a3886523aad, type: 3}
      propertyPath: m_LocalPosition.z
      value: 2
      objectReference: {fileID: 0}
    - target: {fileID: 496350, guid: 50673ce029549f04d8a30a3886523aad, type: 3}
      propertyPath: m_LocalRotation.w
      value: 1
      objectReference: {fileID: 0}
    - target: {fileID: 496350, guid: 50673ce029549f04d8a30a3886523aad, type: 3}
      propertyPath: m_LocalRotation.x
      value: 0
      objectReference: {fileID: 0}
    - target: {fileID: 496350, guid: 50673ce029549f04d8a30a3886523aad, type: 3}
      propertyPath: m_LocalRotation.y
      value: 0
      objectReference: {fileID: 0}
    - target: {fileID: 496350, guid: 50673ce029549f04d8a30a3886523aad, type: 3}
      propertyPath: m_LocalRotation.z
      value: 0
      objectReference: {fileID: 0}
    m_RemovedComponents: []
  m_SourcePrefab: {fileID: 100100000, guid: 50673ce029549f04d8a30a3886523aad, type: 3}
--- !u!4 &2128971830 stripped
Transform:
  m_CorrespondingSourceObject: {fileID: 496350, guid: 50673ce029549f04d8a30a3886523aad, type: 3}
  m_PrefabInstance: {fileID: 2128971829}
  m_PrefabAsset: {fileID: 0}
